Retrieve Lite Entity (identifiers) from ChEBI — get_chebiid • rOpenSci: webchem
…
#> # A tibble: 1 x 2
#>   query                       chebiid
#>   <chr>                       <chr>  
#> 1 BPGDAMSIGCZZLK-UHFFFAOYSA-N NA     

# multiple inputs
comp <- c('Iron', 'Aspirin', 'BPGDAMSIGCZZLK-UHFFFAOYSA-N')
get_chebiid(comp)

#> # A tibble: 219 x 5
#>    query chebiid      chebiasciiname                  searchscore entitystar
#>    <chr> <chr>        <chr>                           <chr>       <chr>     
#>  1 Iron  CHEBI:53438  iron(3+) sulfate                0.92        3         
#>  2 Iron  CHEBI:75899  iron(3+) sulfide                0.89        3         
#>  3 Iron  CHEBI:144421 iron(III) citrate               0.87        3         
#>  4 Iron  CHEBI:131372 iron(3+) phosphate tetrahydrate 0.86        3         
#>  5 Iron  CHEBI:131387 iron(3+) sulfate hydrate        0.86        3         
#>  6 Iron  CHEBI:75832  iron(2+) sulfate (anhydrous)    0.83        3         
#>  7 Iron  CHEBI:75896  iron sulfides                   0.76        3         
#>  8 Iron  CHEBI:18248  iron atom                       0.75        3         
#>  9 Iron  CHEBI:82664  iron(0)                         0.72        3         
#> 10 Iron  CHEBI:131371 iron(3+) phosphate              0.7         3         
#> # … with 209 more rows
…
