Retrieve Pubchem Compound ID (CID) — get_cid • rOpenSci: webchem
…
    Examples

# \donttest{
# might fail if API is not available
get_cid("Triclosan")

#> # A tibble: 1 x 2
#>   query     cid  
#>   <chr>     <chr>
#> 1 Triclosan 5564 
get_cid("Triclosan", arg = "name_type=word")

#> # A tibble: 40 x 2
#>    query     cid      
#>    <chr>     <chr>    
#>  1 Triclosan 5564     
#>  2 Triclosan 627458   
#>  3 Triclosan 45040608 
#>  4 Triclosan 67606152 
#>  5 Triclosan 71752714 
#>  6 Triclosan 24848164 
#>  7 Triclosan 67346638 
#>  8 Triclosan 45040609 
#>  9 Triclosan 131741682
#> 10 Triclosan 67606151 
#> # … with 30 more rows
…
#> # A tibble: 1 x 2
#>   query                       cid  
#>   <chr>                       <chr>
#> 1 InChI=1S/CH5N/c1-2/h2H2,1H3 6329 
# from InChIKey
get_cid("BPGDAMSIGCZZLK-UHFFFAOYSA-N", from = "inchikey")

#> # A tibble: 1 x 2
#>   query                       cid  
#>   <chr>                       <chr>
#> 1 BPGDAMSIGCZZLK-UHFFFAOYSA-N 12345
# from formula
get_cid("C26H52NO6P", from = "formula")

#> # A tibble: 33 x 2
#>    query      cid      
#>    <chr>      <chr>    
#>  1 C26H52NO6P 10864091 
#>  2 C26H52NO6P 24779513 
#>  3 C26H52NO6P 71584579 
#>  4 C26H52NO6P 71582867 
#>  5 C26H52NO6P 6384103  
#>  6 C26H52NO6P 4465356  
#>  7 C26H52NO6P 147059762
#>  8 C26H52NO6P 131716652
#>  9 C26H52NO6P 91019382 
#> 10 C26H52NO6P 88696684 
#> # … with 23 more rows
…
#> # A tibble: 6 x 2
#>   query   cid     
#>   <chr>   <chr>   
#> 1 56-40-6 750     
#> 2 56-40-6 22316   
#> 3 56-40-6 40772   
#> 4 56-40-6 5257127 
#> 5 56-40-6 21226085
#> 6 56-40-6 23673715
# similarity
get_cid(5564, from = "similarity/cid")

#> # A tibble: 197 x 2
#>    query cid     
#>    <dbl> <chr>   
#>  1  5564 5564    
#>  2  5564 627458  
#>  3  5564 5271320 
#>  4  5564 107942  
#>  5  5564 18807   
#>  6  5564 21272512
#>  7  5564 24848164
#>  8  5564 9822749 
#>  9  5564 165111  
#> 10  5564 67606152
#> # … with 187 more rows
get_cid("CCO", from = "similarity/smiles")

#> # A tibble: 192 x 2
#>    query cid     
#>    <chr> <chr>   
#>  1 CCO   702     
#>  2 CCO   12201693
#>  3 CCO   12201695
#>  4 CCO   12201684
#>  5 CCO   519451  
#>  6 CCO   137238  
#>  7 CCO   123157  
#>  8 CCO   123093  
#>  9 CCO   102138  
#> 10 CCO   58233034
#> # … with 182 more rows
…
#> # A tibble: 1 x 2
#>    query cid  
#>    <dbl> <chr>
#> 1 170004 68352
# from GeneID (CIDs of substances tested on the gene)
get_cid(25086, from = "target/geneid", domain = "assay")

#> # A tibble: 25 x 2
#>    query cid     
#>    <dbl> <chr>   
#>  1 25086 11659928
#>  2 25086 11624320
#>  3 25086 11580958
#>  4 25086 11595347
#>  5 25086 11610203
#>  6 25086 11681690
#>  7 25086 44565544
#>  8 25086 25143210
#>  9 25086 44565496
#> 10 25086 44565517
#> # … with 15 more rows
…
